178    -451.799328
226    -453.461832
272    -452.487588
318    -453.337674
366    -453.848837
412    -453.945897
458    -453.847347
504    -453.936261
552    -454.465302
598    -454.433183
646    -454.598097
692    -454.592811
738    -454.279589
784    -454.527733
832    -454.534795
878    -454.360231
924    -454.379776
972    -454.505887
1018   -454.496749
1064   -454.194167
1110   -454.484315
1158   -454.759412
1204   -454.866173
1250   -454.798416
1296   -454.555307
1342   -454.794823
1390   -455.266291
1436   -455.652479
1482   -455.960013
1528   -456.174250
1574   -456.263078
1620   -456.174257
1666   -456.254686
1714   -456.637227
1760   -456.674561
1808   -457.026958
1854   -456.940329
1900   -457.099707
1948   -457.207147
1994   -457.248727
2042   -457.512877
2088   -457.698586
2134   -457.724612
2180   -457.571526
2226   -457.721856
2274   -457.997053
2320   -457.994742
2368   -458.344546
2414   -458.484494
2460   -458.467809
2508   -458.469446
